draugr.ffmpeg\_utilities.split
==============================

.. automodule:: draugr.ffmpeg_utilities.split

   
   
   

   
   
   .. rubric:: Functions

   .. autosummary::
      :toctree:
   
      spilt_video
   
   

   
   
   

   
   
   



