draugr.torch\_utilities.datasets.supervised.vision\_datasets.dict\_dataset
==========================================================================

.. automodule:: draugr.torch_utilities.datasets.supervised.vision_datasets.dict_dataset

   
   
   

   
   
   

   
   
   .. rubric:: Classes

   .. autosummary::
      :toctree:
      :template: custom_autosummary/class.rst
   
      DictDatasetFolder
      SplitDictDatasetFolder
   
   

   
   
   



