draugr.os\_utilities.resource\_utilities.all
============================================

.. automodule:: draugr.os_utilities.resource_utilities.all

   
   
   

   
   
   .. rubric:: Functions

   .. autosummary::
      :toctree:
   
      get_num_instances
   
   

   
   
   

   
   
   



