draugr.writers.mixins.instantiation\_writer\_mixin
==================================================

.. automodule:: draugr.writers.mixins.instantiation_writer_mixin

   
   
   

   
   
   

   
   
   .. rubric:: Classes

   .. autosummary::
      :toctree:
      :template: custom_autosummary/class.rst
   
      InstantiationWriterMixin
   
   

   
   
   



